<svg width="40" height="40" viewBox="0 0 40 40" fill="none" xmlns="http://www.w3.org/2000/svg">
    <rect width="40" height="40" fill="white"/>
    <path d="M15.8004 3.88621C9.57016 5.55559 5.88142 11.9447 7.55081 18.1749C9.3496 24.8881 18.9456 32.2382 22.8203 34.9788C23.6713 35.579 24.8465 35.2641 25.2834 34.3188C27.2526 30.0124 31.8879 18.849 30.0891 12.1358C28.4197 5.90556 22.0306 2.21682 15.8004 3.88621ZM19.8984 19.18C17.6767 19.7753 15.3905 18.4554 14.7952 16.2338C14.2 14.0121 15.5199 11.7259 17.7415 11.1306C19.9632 10.5354 22.2493 11.8553 22.8446 14.0769C23.4399 16.2986 22.12 18.5847 19.8984 19.18Z"
          fill="#242A33"/>
</svg>
