Provincia;Codice;Denominazione;Comune/i punti di erogazione;Istanza IS;Istanza Comune PE;Piano provinciale;Parere USR;Piano regionale
BAT;BAEE04900P;"1 C.D. ""OBERDAN""";ANDRIA;;;;;
;;"8 C.D. ""A . ROSMINI""";ANDRIA;;BAEE05600T_A285.pdf;;;
;;"8 C.D. ""A . ROSMINI""";ANDRIA;;BAAA05604R_A285.pdf;;;
BAT;BAEE05600T;"8 C.D. ""A . ROSMINI""";ANDRIA;;BAAA05607X_A285.pdf;;;
BAT;BAEE061009;"3 C.D. ""N. FRAGGIANNI""";BARLETTA;;;;;
BAT;BAEE063001;"5 C.D. ""G. MODUGNO""";BARLETTA;;;;;
BAT;BAEE06400R;"6 C.D. ""GIRONDI""";BARLETTA;;;;;
BAT;BAEE06500L;"7 C.D. ""GIOVANNI PAOLO II""";BARLETTA;;;;;
BAT;BAEE068004;"1 C.D. ""DE AMICIS""";BISCEGLIE;;;;;
BAT;BAEE06900X;"2 C.D. ""PROF. ARC. CAPUTI""";BISCEGLIE;;;;;
BAT;BAEE070004;"3 C.D. ""S. GIOVANNI BOSCO""";BISCEGLIE;;;;;
BAT;BAEE07100X;"4 C.D. ""DON P. UVA""";BISCEGLIE;;;;;
BAT;BAEE17200L;"1 C.D. ""DE AMICIS""";TRANI;;;;;
BAT;BAEE17300C;"2 C.D. ""MONS. PETRONELLI""";TRANI;;;;;
BAT;BAEE174008;"3 C.D. ""D'ANNUNZIO""";TRANI;;;;;
BAT;BAEE175004;"4 C.D. ""G. BELTRANI """;TRANI;;;;;
BAT;BAEE19800R;"3 C.D. ""R. COTUGNO""";ANDRIA;;;;;
BAT;BAIC80000Q;"I.C. ""PIETROCOLA - MAZZINI""";MINERVINO MURGE;;;;;
BAT;BAIC80100G;"I.OC. ""MAZZINI-DE CESARE-FERMI""";SPINAZZOLA;;;;;
BAT;BAIC85100L;"I.C. ""G. BOVIO - G. MAZZINI""";CANOSA DI PUGLIA;;;;;
BAT;BAIC85200C;"I.C.""FOSCOLO-DE MURO LOMANTO""";CANOSA DI PUGLIA;;;;;
BAT;BAIC853008;"I.C. ""MARCONI-CARELLA-LOSITO""";CANOSA DI PUGLIA;;;;;
BAT;BAIC86000B;"I.C. ""DON BOSCO SANTO-MANZONI""";ANDRIA;;;;;
BAT;BAIC862003;"I.C. ""A. MARIANO - E. FERMI""";ANDRIA;;;;;
BAT;BAIC86300V;"I.C. ""G. VERDI - P. CAFARO""";ANDRIA;;BAIC86300V_A285.pdf;;;
;;"I.C. ""G. VERDI - P. CAFARO""";ANDRIA;;BAMM86301X_A285.pdf;;;
;;"I.C. ""G. VERDI - P. CAFARO""";ANDRIA;;BAEE863011_A285.pdf;;;
;;"I.C. ""G. VERDI - P. CAFARO""";ANDRIA;;BAAA86302R_A285.pdf;;;
;;"I.C. ""G. VERDI - P. CAFARO""";ANDRIA;;BAAA86301Q_A285.pdf;;;
BAT;BAIC86400P;"I.C. ""IANNUZZI-MONS. DI DONNA""";ANDRIA;;;;;
BAT;BAIC86600A;"I.C. ""MUSTI - DIMICCOLI""";BARLETTA;;;;;
BAT;BAIC867006;"I.C. ""PIETRO PAOLO MENNEA""";BARLETTA;;;;;
BAT;BAIC89200V;"I.C. ""D'AZEGLIO - DE NITTIS""";BARLETTA;;;;;
BAT;BAIC89300P;"I.C. ""IMBRIANI - SALVEMINI""";ANDRIA;;;;;
BAT;BAMM07800N;"S.S.1 G. ""E. FIERAMOSCA""";BARLETTA;;;;;
BAT;BAMM08100D;"S.S.1 G. ""A. MORO""";BARLETTA;;;;;
BAT;BAMM089004;"S.S.1 G. ""R. MONTERISI""";BISCEGLIE;;;;;
BAT;BAMM209001;"S.S.1 G.  ""E. BALDASSARRE""";TRANI;;;;;
BAT;BAMM29100T;"S.S.1 G. ""BATTISTI - FERRARIS""";BISCEGLIE;;;;;
BAT;BAMM29300D;"S.S.1 G.  ""V. EM III-ALIGHIERI""";ANDRIA;;;;;
BAT;BAMM294009;"S.S.1 G. ""PADRE N. VACCINA""";ANDRIA;;;;;
BAT;BAMM30000B;"S.S.1 G.  ""BALDACCHINI-MANZONI""";BARLETTA;;;;;
BAT;BAMM302003;"S.S.1 G. ""ROCCA-BOVIO-PALUMBO""";TRANI;;;;;
BAT;FGEE099004;"C.D. ""DON MILANI""";TRINITAPOLI;;;;;
BAT;FGIC85400C;DIREZ. DIDATT.+I GRADO PASCOLI;MARGHERITA DI SAVOIA;;;;;
BAT;FGIC855008;"I.C. ""DE AMICIS""";SAN FERDINANDO DI PUGLIA;;;;;
BAT;FGIC871006;GIOVANNI XXIII;SAN FERDINANDO DI PUGLIA;;;;;
BAT;FGIC87500D;GARIBALDI- LEONE;TRINITAPOLI;;;;;
BAT;BAIS04300T;"I.I.S.S.  ""R. LOTTI  - UMBERTO I""";ANDRIA;BAIS04300T.pdf;;;;
BAT;BAIS05600X;"I.I.S.S. ""ETTORE CARAFA""";ANDRIA;;;;;
BAT;BAIS04400N;"I.I.S.S. ""GIUSEPPE COLASANTO""";ANDRIA;BAIS04400N.pdf;;;;
BAT;BATF060003;"ISTITUTO TECNICO TECNOL ""SEN. IANNUZZI""";ANDRIA;;;;;
BAT;BAPC04000L;"LICEO ""CARLO TROYA""";ANDRIA;;;;;
BAT;BAPS080006;"LICEO SCIENTIFICO ""RICCARDO NUZZI""";ANDRIA;;;;;
BAT;BAIS046009;"I.I.S.S. ""N. GARRONE""";BARLETTA;;;;;
BAT;BARI05000G;"ISTITUTO PROFESSIONALE ""ARCHIMEDE """;BARLETTA;;;;;
BAT;BATD320001;"ISTITUTO TECNICO ""CASSANDRO-FERMI-NERVI""";BARLETTA;BATD20001.pdf;;;;
BAT;BAPC01000R;"LICEO ""A. CASARDI""";BARLETTA;;;;;
BAT;BAPS150007;"LICEO ""CARLO CAFIERO""";BARLETTA;;;;;
BAT;BAIS05700Q;"I.I.S.S. ""GIACINTO DELL'OLIO""";BISCEGLIE;;;;;
BAT;BAIS03600P;"I.I.S.S. ""SERGIO COSMAI""";BISCEGLIE;;;;;
BAT;BAPS030005;"LICEO ""LEONARDO DA VINCI""";BISCEGLIE;;;;;
BAT;BAIS00700P;"I.I.S.S. ""L. EINAUDI"" (ITET - IPAA)";CANOSA DI PUGLIA;;;;;
BAT;BAPS04000Q;"LICEO ""ENRICO FERMI""";CANOSA DI PUGLIA;;;;;
BAT;BAIS05800G;"I.I.S.S. ""ALDO MORO""";TRANI;BAIS05800G.pdf;;;;
BAT;BAPC21000E;"LICEO ""F. DE SANCTIS""";TRANI;;;;;
BAT;BAPS11000R;"LICEO SCIENTIFICO ""VLADIMIRO VECCHI""";TRANI;;;;;
BAT;FGIS05300R;"I.I.S.S. "" I.P.E.O.A. - A. MORO""";MARGHERITA DI SAVOIA;;;;;
BAT;FGIS023001;"I.I.S.S. ""M. DELL'AQUILA - S. STAFFA""";SAN FERDINANDO DI PUGLIA;;;;;
BAT;BAMM301007;CPIA BAT;ANDRIA;BAIC89300P.pdf;;;;
