Provincia;Codice;Denominazione;Comune/i punti di erogazione;Istanza IS;Istanza Comune PE;Piano provinciale;Parere USR;Piano regionale
Bari;BAEE011008;"11 C.D. ""S.FILIPPO NERI""";BARI;BAEE011008.pdf;;;;
Bari;BAEE01400Q;"14 C.D. ""RE DAVID""";BARI;;;;;
Bari;BAEE017007;"17 C.D. ""POGGIOFRANCO""";BARI;;;;;
Bari;BAEE026002;"26 C.D. ""MONTE SAN MICHELE""";BARI;;;;;
Bari;BAEE02700T;27 C.D. BARI PALESE;BARI;;;;;
Bari;BAEE04400G;"1 C.D. ""IV NOVEMBRE""";ALTAMURA;;;;;
Bari;BAEE04500B;"2 C.D. ""G. GARIBALDI""";ALTAMURA;;;;;
Bari;BAEE046007;"3 C.D. ""RONCALLI""";ALTAMURA;;;;;
Bari;BAEE076003;"1 C.D. ""N. FORNELLI""";BITONTO;;;;;
Bari;BAEE088009;"1 C.D. ""MARCONI""";CASAMASSIMA;;;;;
Bari;BAEE09400L;"1 C.D. ""G. FALCONE""";CONVERSANO;;;;;
Bari;BAEE09500C;2 C.D. VIA FIRENZE;CONVERSANO;;;;;
Bari;BAEE09800X;"2 CD. ""FORNELLI""";CORATO;;;;;
Bari;BAEE110009;"2 C.D. ""DON SAVERIO VALERIO""";GRAVINA IN PUGLIA;;;;;
Bari;BAEE12000X;"1 C.D. ""DE AMICIS""";MODUGNO;;;;;
Bari;BAEE12100Q;"2 C.D. ""VIA NAPOLI""";MODUGNO;BAEE12100Q.pdf;;;;
Bari;BAEE12200G;"3 C.D. ""DON LORENZO MILANI""";MODUGNO;;;;;
Bari;BAEE124007;"1 C.D. ""M. MONTESSORI""";MOLA DI BARI;BAEE124007.pdf;;;;
Bari;BAEE125003;"2 C.D. ""S. GIUSEPPE""";MOLA DI BARI;;;;;
Bari;BAEE15700E;"1 C.D. ""G . BOVIO""";RUVO DI PUGLIA;;;;;
Bari;BAEE15800A;"2 C.D. ""S. GIOVANNI BOSCO""";RUVO DI PUGLIA;;;;;
Bari;BAEE162002;"1 C.D. ""HERO PARADISO""";SANTERAMO IN COLLE;;;;;
Bari;BAEE16300T;"2 C.D.  ""S. FRANCESCO D'ASSISI""";SANTERAMO IN COLLE;;;;;
Bari;BAEE167005;"1 C.D. ""DON PAPPAGALLO""";TERLIZZI;;;;;
Bari;BAEE168001;"2 C.D. ""S. GIOVANNI BOSCO""";TERLIZZI;;;;;
Bari;BAEE17700Q;"1 C.D. ""S. GIOVANNI BOSCO""";TRIGGIANO;;;;;
Bari;BAEE17800G;"2 C.D. ""GIOVANNI XXIII""";TRIGGIANO;;;;;
Bari;BAEE18400V;"1 C.D. ""PAPA GIOVANNI XXIII""";VALENZANO;;;;;
Bari;BAEE18600E;"5 C.D. ""S. FRANCESCO D'ASSISI""";ALTAMURA;;;;;
Bari;BAEE19200T;"6 C.D. ""DON L. MILANI""";ALTAMURA;;;;;
Bari;BAEE20100B;"C.D. ""S. D. SAVIO - T. FIORE""";GRAVINA IN PUGLIA;;;;;
Bari;BAEE55900N;"C.D. ""G. CAIATI""";BITONTO;BAEE55900N.pdf;;;;
Bari;BAIC803007;"I.C. ""UMBERTO I - S. NICOLA""";BARI;;;;;
Bari;BAIC804003;"I.C. ""N. RONCHI""";CELLAMARE;;;;;
Bari;BAIC80500V;I.C. SAMMICHELE;SAMMICHELE DI BARI;;;;;
Bari;BAIC80600P;"I.C. ""FALCONE - BORSELLINO""";BARI;;;;;
Bari;BAIC80800A;"I.C. ""DON TONIN0 BELLO""-PALOMB.";BITONTO;;;;;
Bari;BAIC809006;"I.C. ""MODUGNO-RUTIGLIANO-ROGAD""";BITONTO;;;;;
Bari;BAIC811006;"I.C. ""SANTOMASI - SCACCHI""";GRAVINA IN PUGLIA;;;;;
Bari;BAIC812002;"I.C. ""DON LORENZO MILANI""";BARI;;;;;
Bari;BAIC81300T;"I.C. ""N. ZINGARELLI""";BARI;BAIC81300T.pdf;;;;
Bari;BAIC81400N;"I.C. ""BALILLA - M.R. IMBRIANI""";BARI;BAIC81400N.pdf;;;;
Bari;BAIC81500D;"I.C. ""G. GARIBALDI""";BARI;;;;;
Bari;BAIC816009;"I.C. ""E. DUSE""";BARI;;;;;
Bari;BAIC817005;"I.C. ""DE AMICIS - LATERZA""";BARI;;;;;
Bari;BAIC818001;"I.C. ""MASSARI - GALILEI""";BARI;;;;;
Bari;BAIC81900R;"I.C. ""C. PERONE - C. LEVI""";BARI;;;;;
Bari;BAIC820001;"I.C. ""DON D. MOREA-L. TINELLI""";ALBEROBELLO;;;;;
Bari;BAIC82100R;"I.C. ""SAN G. BOSCO - T. FIORE""";ALTAMURA;;;;;
Bari;BAIC82200L;"I.C. ""C. CIANCIOTTA-G. MODUGNO""";BITETTO;;;;;
Bari;BAIC82300C;"I.C. ""SAN G. BOSCO-G. VENISTI""";CAPURSO;;;;;
Bari;BAIC824008;"I.C. ""S.D.SAVIO-R.L.MONTALCINI""";CAPURSO;;;;;
Bari;BAIC825004;"I.C. ""PEROTTI - RUFFO""";CASSANO DELLE MURGE;;;;;
Bari;BAIC82600X;"I.C. ""G. TAURO - S. VITERBO""";CASTELLANA GROTTE;;;;;
Bari;BAIC82700Q;"I.C. ""A. ANGIULLI - DE BELLIS""";CASTELLANA GROTTE;;;;;
Bari;BAIC82800G;"I.C. ""CARANO - MAZZINI""";GIOIA DEL COLLE;;;;;
Bari;BAIC82900B;"I.C. ""LOSAPIO-SAN FILIPPO NERI""";GIOIA DEL COLLE;BAIC82900B.pdf;;;;
Bari;BAIC83100B;"I.C. ""MARCONI - OLIVA""";LOCOROTONDO;;;;;
Bari;BAIC832007;"I.C. ""S.G.BOSCO - MANZONI""";SANNICANDRO DI BARI;;;;;
Bari;BAIC833003;"I.C. ""RESTA-DE DONATO GIANNINI""";TURI;;;;;
Bari;BAIC83400V;"I.C. ""A.MORO - G. FALCONE""";ADELFIA;;;;;
Bari;BAIC83600E;"I.C. ""RITA LEVI-MONTALCINI""";BITRITTO;;;;;
Bari;BAIC83700A;"I.C. ""GALLO - POSITANO""";NOCI;;;;;
Bari;BAIC838006;"I.C. ""PASCOLI - CAPPUCCINI""";NOCI;;;;;
Bari;BAIC840006;"I.C. ""GRAMSCI - PASCOLI""";NOICATTARO;;;;;
Bari;BAIC84200T;"I.C. ""ARISTIDE GABELLI""";BARI;;;;;
Bari;BAIC84300N;"I.C. ""B. GRIMALDI-L. LOMBARDI""";BARI;;;;;
Bari;BAIC84400D;"I.C. ""MONTELLO - SANTOMAURO""";BARI;BAIC84400D.pdf;;;;
Bari;BAIC845009;"I.C. ""G.PAOLO II - DE MARINIS""";BARI;;;;;
Bari;BAIC846005;"I.C. ""CEGLIE-MANZONI LUCARELLI""";BARI;;;;;
Bari;BAIC847001;"I.C. ""MAZZINI - MODUGNO""";BARI;;;;;
Bari;BAIC84800R;"I.C. ""C. SYLOS""";BITONTO;;;;;
Bari;BAIC85000R;"I.C. ""V.F.CASSANO-A. DE RENZIO""";BITONTO;;;;;
Bari;BAIC854004;"I.C. ""AZZOLLINI-GIAQUINTO""";MOLFETTA;;;;;
Bari;BAIC85500X;"I.C. ""MANZONI - POLI""";MOLFETTA;;;;;
Bari;BAIC85600Q;"I.C. ""BATTISTI - PASCOLI""";MOLFETTA;;;;;
Bari;BAIC85700G;"I.C. ""R.SCARDIGNO-SAN D. SAVIO""";MOLFETTA;;;;;
Bari;BAIC85800B;"I.C. ""G. MINZELE - G. PARINI""";PUTIGNANO;;;;;
Bari;BAIC859007;"I.C. ""DE GASPERI-S.DA PUTIGNANO";PUTIGNANO;;;;;
Bari;BAIC868002;"I.C. ""D.F. TATTOLI-DE GASPERI""";CORATO;;;;;
Bari;BAIC86900T;"I.C. ""ANTENORE - GUACCERO""";PALO DEL COLLE;;;;;
Bari;BAIC870002;"I.C. ""DAVANZATI-MASTROMATTEO""";PALO DEL COLLE;;;;;
Bari;BAIC87100T;"I.C. ""SAN GIOVANNI BOSCO""";POLIGNANO A MARE;;;;;
Bari;BAIC87200N;"I.C. ""SARNELLI-DE DONATO-RODARI";POLIGNANO A MARE;;;;;
Bari;BAIC87300D;"I.C. ""G. MODUGNO - G. GALILEI""";MONOPOLI;;;;;
Bari;BAIC874009;"I.C. ""M. JONES - O. COMES""";MONOPOLI;;;;;
Bari;BAIC875005;"I.C. ""VIA DIETA - V. SOFO""";MONOPOLI;;;;;
Bari;BAIC876001;"I.C. ""C. BREGANTE -  A. VOLTA""";MONOPOLI;;;;;
Bari;BAIC87700R;"I.C. ""S. G. BOSCO - MANZONI""";TORITTO;;;;;
Bari;BAIC87800L;"I.C. ""BATTISTI-GIOVANNI XXIII""";CORATO;;;;;
Bari;BAIC87900C;"I.C. ""IMBRIANI - L. PICCARRETA""";CORATO;;;;;
Bari;BAIC88000L;"I.C. ""CIFARELLI - SANTARELLA""";CORATO;;;;;
Bari;BAIC88100C;I.C. SGBOSCO-BENEDET13-POGGIORS;GRAVINA IN PUGLIA;;;;;
Bari;BAIC88100C;I.C. SGBOSCO-BENEDET13-POGGIORS;POGGIORSINI;;;;;
Bari;BAIC882008;"I.C. ""SAN GIOVANNI BOSCO""";MOLFETTA;;;;;
Bari;BAIC883004;I.C. DEVITOFRA-GIOVAN 23-BINETT;BINETTO;;;;;
Bari;BAIC883004;I.C. DEVITOFRA-GIOVAN 23-BINETT;GRUMO APPULA;;;;;
Bari;BAIC88400X;"I.C. ""JAPIGIA 1 - VERGA""";BARI;;;;;
Bari;BAIC88500Q;"I.C. ""CAPOZZI - GALILEI""";VALENZANO;;;;;
Bari;BAIC88600G;"I.C. ""JAPIGIA 2 - TORRE A MARE""";BARI;;;;;
Bari;BAIC88700B;"I.C. ""DON MONTEMURRO""";GRAVINA IN PUGLIA;;;;;
Bari;BAIC888007;"I.C. ""N. INGANNAMORTE""";GRAVINA IN PUGLIA;;;;;
Bari;BAIC889003;"I. C. ""U. FRACCACRETA""";BARI;;;;;
Bari;BAIC890007;"I.C. ""S.G.BOSCO - BUONARROTI""";GIOVINAZZO;;;;;
Bari;BAIC891003;"I.C. ""DON S. BAVARO - MARCONI""";GIOVINAZZO;;;;;
Bari;BAIC89400E;"I.C. ""DE AMICIS-GIOVANNI XXIII""";ACQUAVIVA DELLE FONTI;;;;;
Bari;BAIC89500A;"I.C. ""CAPORIZZI - LUCARELLI""";ACQUAVIVA DELLE FONTI;;;;;
Bari;BAIC896006;"I.C. ""G. SETTANNI - A. MANZONI""";RUTIGLIANO;;;;;
Bari;BAIC897002;"I.C. ""A. MORO-DON TONINO BELLO""";NOICATTARO;;;;;
Bari;BAIC897002;"I.C. ""A. MORO-DON TONINO BELLO""";RUTIGLIANO;;;;;
Bari;BAIC89800T;"I.C. ""DE GASPERI - PENDE""";NOICATTARO;;;;;
Bari;BAIC89900N;"I.C. ""G. RODARI - D. ALIGHIERI""";CASAMASSIMA;;;;;
Bari;BAMM003008;"S.S.1 G. ""G. CARDUCCI""";BARI;;;;;
Bari;BAMM02200N;"S.S.1.G. ""MICHELANGELO""";BARI;BAMM02200N.pdf;;;;
Bari;BAMM03600G;"S.S.1 G. ""T. FIORE""";BARI;;;;;
Bari;BAMM059008;"S.S.1 G. ""S. MERCADANTE""";ALTAMURA;;;;;
Bari;BAMM06300X;"S.S.1 G.  ""PADRE PIO""";ALTAMURA;;;;;
Bari;BAMM146003;"S.S.1 G. ""D. ALIGHIERI""";MODUGNO;;;;;
Bari;BAMM244008;"S.S.1 G. ""A. D'AOSTA""";BARI;BAMM244008.pdf;;;;
Bari;BAMM25600E;"S.S.1 G. ""CARELLI - FORLANI""";CONVERSANO;;;;;
Bari;BAMM25700A;"S.S.1 G. ""ALIGHIERI - TANZI""";MOLA DI BARI;BAMM25700A.pdf;;;;
Bari;BAMM279007;"S.S.1 G. ""F. CASAVOLA-D'ASSISI""";MODUGNO;;;;;
Bari;BAMM281007;S.S.SG. COTUGNO-CARDUC.-G.XXIII;RUVO DI PUGLIA;;;;;
Bari;BAMM282003;"S.S.1 G. ""S. G. BOSCO-F. NETTI""";SANTERAMO IN COLLE;;;;;
Bari;BAMM287006;"S.S.1 G. ""O. SERENA - PACELLI""";ALTAMURA;;;;;
Bari;BAMM290002;"S.S.1 G. ""GESMUNDO-MORO-FIORE""";TERLIZZI;;;;;
Bari;BAMM29200N;"S.S.1 G. ""DE AMICIS - DI ZONNO""";TRIGGIANO;;;;;
Bari;BAVC010004;"S.S.1 G ANNESSA CONV. ""CIRILLO""";BARI;;;;;
Bari;BAIS026004;"I.I.S.S. ""C. COLAMONICO - N. CHIARULLI """;ACQUAVIVA DELLE FONTI;;;;;
Bari;BAIS033007;"I.I.S.S. ""ROSA LUXEMBURG""";ACQUAVIVA DELLE FONTI;BAIS033007.pdf;;;;
Bari;BAPM05000B;"LICEO ""DON LORENZO MILANI""";ACQUAVIVA DELLE FONTI;BAPM05000B.pdf;;;;
Bari;BAIS004007;"I.I.S.S. ""MICHELE DE NORA""";ALTAMURA;BAIS004007.pdf;;;;
Bari;BATD02000A;"ISTITUTO TECNICO ECONOMICO ""F. M. GENCO""";ALTAMURA;;;;;
Bari;BATL07000T;"ISTITUTO TECNICO TECNOL. ""NERVI-GALILEI""";ALTAMURA;BATL07000T.pdf;;;;
Bari;BAPC030002;"LICEO ""CAGNAZZI""";ALTAMURA;;;;;
Bari;BAPS200003;"LICEO ""FEDERICO II  DI  SVEVIA""";ALTAMURA;;;;;
Bari;BAIS047005;"I.I.S.S. ""DE NITTIS - PASCALI""";BARI;BAIS047005.pdf;;;;
Bari;BAIS062007;"I.I.S.S. ""DOMENICO ROMANAZZI""";BARI;;;;;
Bari;BAIS04900R;"I.I.S.S. ""E. DI SAVOIA - P. CALAMANDREI""";BARI;;;;;
Bari;BAIS03200B;"I.I.S.S. ""ETTORE MAJORANA""";BARI;;;;;
Bari;BAIS063003;"I.I.S.S. ""G. MARCONI - MARGHERITA HACK""";BARI;;;;;
Bari;BAIS03700E;"I.I.S.S. ""GORJUX - TRIDENTE - VIVANTE""";BARI;BAIS03700E.pdf;;;;
Bari;BAIS05900B;"I.I.S.S. ""MARCO POLO""";BARI;;;;;
Bari;BAIS06100B;"I.I.S.S.""GIULIO CESARE""";BARI;;;;;
Bari;BARH01000N;"I.P.E.O.A. ""A. PEROTTI""";BARI;BARH01000N.pdf;;;;
Bari;BARF010006;"I.P.S.S.A.S. ""S. DE LILLA""";BARI;BARF010006.pdf;;;;
Bari;BARI040001;"ISTITUTO PROFESSIONALE ""L. SANTARELLA""";BARI;BARI040001.pdf;;;;
Bari;BATH040009;"ISTITUTO TECNIC TEC.""EUCLIDE-CARACCIOLO""";BARI;;;;;
Bari;BATD13000T;"ISTITUTO TECNICO ECONOMICO ""LENOCI""";BARI;;;;;
Bari;BATF230001;"ISTITUTO TECNICO TEC. ""PANETTI-PITAGORA""";BARI;;;;;
Bari;BAPM010001;"LICEO ""G. BIANCHI DOTTULA""";BARI;;;;;
Bari;BAPC13000V;"LICEO CLASSICO ""Q. ORAZIO FLACCO""";BARI;;;;;
Bari;BAPC150004;"LICEO CLASSICO ""SOCRATE""";BARI;;;;;
Bari;BAPS01000X;"LICEO SCIENTIFICO ""A. SCACCHI""";BARI;;;;;
Bari;BAPS05000A;"LICEO SCIENTIFICO ""E. FERMI""";BARI;;;;;
Bari;BAPS060001;"LICEO SCIENTIFICO ""G. SALVEMINI""";BARI;;;;;
Bari;BAPS24000D;"LICEO ""E. AMALDI""";BITETTO;BAPS24000D.pdf;;;;
Bari;BAIS06700A;"I.I.S.S. ""VOLTA - DE GEMMIS""";BITONTO;;;;;
Bari;BATD220004;"ISTITUTO TECNICO ECON. ""VITALE GIORDANO""";BITONTO;BATD220004.pdf;;;;
Bari;BAPC18000X;"LICEO ""CARMINE SYLOS""";BITONTO;BAPC18000X.pdf;;;;
Bari;BAPS12000B;"LICEO ""GALILEO GALILEI""";BITONTO;;;;;
Bari;BAIS03100G;"I.I.S.S. ""LEONARDO DA VINCI""";CASSANO DELLE MURGE;BAIS03100G.pdf;;;;
Bari;BAIS069002;"I.I.S.S. ""CONSOLI - PINTO""";CASTELLANA GROTTE;BAIS069002.pdf;;;;
Bari;BAIS07900L;"I.I.S.S. ""LUIGI DELL'ERBA""";CASTELLANA GROTTE;;;;;
Bari;BAPM04000R;"LICEO ""S. BENEDETTO""";CONVERSANO;;;;;
Bari;BAPS370006;"LICEO ""SIMONE - MOREA""";CONVERSANO;BAPS370006.pdf;;;;
Bari;BAIS054008;"I.I.S.S. ""A. ORIANI - L. TANDOI""";CORATO;;;;;
Bari;BAIS039006;"I.I.S.S. ""FEDERICO II, STUPOR MUNDI""";CORATO;BAIS039006.pdf;;;;
Bari;BATD09000L;"ISTITUTO TECNICO  ""PADRE A. M. TANNOIA""";CORATO;;;;;
Bari;BAIS00200G;"I.I.S.S. ""RICCIOTTO CANUDO""";GIOIA DEL COLLE;;;;;
Bari;BAIS013002;"I.I.S.S. ""V. BACHELET - G. GALILEI""";GRAVINA IN PUGLIA;;;;;
Bari;BAPS07000G;"LICEO ""G. TARANTINO""";GRAVINA IN PUGLIA;;;;;
Bari;BAIS02400C;"I.I.S.S. ""BASILE CARAMIA - GIGANTE""";LOCOROTONDO;;;;;
Bari;BAIS02900G;"I.I.S.S. ""TOMMASO FIORE""";MODUGNO;;;;;
Bari;BAIS02800Q;"I.I.S.S ""L. DA VINCI - E. MAJORANA""";MOLA DI BARI;;;;;
Bari;BAIS042002;"I.I.S.S. ""AMERIGO VESPUCCI""";MOLFETTA;BAIS042002.pdf;BAIS042002_F284.pdf;;;
Bari;BAIS06400V;"I.I.S.S. ""GALILEO FERRARIS""";MOLFETTA;BAIS06400V.pdf;BAIS06400V_F284.pdf;;;
Bari;BAIS041006;"I.I.S.S. ""MONS. ANTONIO BELLO""";MOLFETTA;BAIS041006.pdf;BAIS041006_F284.pdf;;;
Bari;BARH04000D;I.P.E.O.A. DI MOLFETTA;MOLFETTA;BARH04000D.pdf;BARH04000D_F284.pdf;;;
Bari;BATD04000G;"ISTITUTO TECNICO ""GAETANO SALVEMINI""";MOLFETTA;BATD04000G.pdf;BATD04000G_F284.pdf;;;
Bari;BAPS38000R;"LICEI  ""A. EINSTEIN - L. DA VINCI""";MOLFETTA;BAPS38000R.pdf;BAPS38000R_F284.pdf;;;
Bari;BAPM02000G;"LICEO ""VITO FORNARI""";MOLFETTA;BAPM02000G.pdf;BAPM02000G_F284.pdf;;;
Bari;BAIS05300C;"I.I.S.S.  ""LUIGI RUSSO""";MONOPOLI;BAIS05300C.pdf;;;;
Bari;BATF26000R;"ISTITUTO TECNICO ""VITO SANTE LONGO""";MONOPOLI;;;;;
Bari;BAPC24000A;"LICEO ""G. GALILEI - M. CURIE""";MONOPOLI;;;;;
Bari;BAIS05200L;"I.I.S.S. ""L. DA VINCI - AGHERBINO""";NOCI;;;;;
Bari;BAIS07300N;"I.I.S.S. ""D. MODUGNO - S. DE LILLA""";POLIGNANO A MARE;;;;;
Bari;BAPS36000G;"LICEO ""MAJORANA - LATERZA""";PUTIGNANO;;;;;
Bari;BAIS068006;"I.I.S.S. ""I. ALPI - E. MONTALE""";RUTIGLIANO;BAIS068006.pdf;;;;
Bari;BAPS09000R;"LICEO ""O. TEDONE""";RUVO DI PUGLIA;BAPS09000R.pdf;;;;
Bari;BAIS01600D;"I.I.S.S. ""PIETRO SETTE""";SANTERAMO IN COLLE;BAIS01600D.pdf;;;;
Bari;BAPC23000Q;"LICEI ""SYLOS - FIORE""";TERLIZZI;;;;;
Bari;BATD21000D;"ISTITUTO TECNICO ""DE VITI DE MARCO""";TRIGGIANO;;;;;
Bari;BAPS270009;"LICEI ""CARTESIO""";TRIGGIANO;;;;;
Bari;BAIS071002;"I.I.S.S. ""PERTINI - ANELLI""";TURI;BAIS071002.pdf;;;;
Bari;BAMM29700R;CPIA 1 BARI;BARI;;;;;
Bari;BAMM29800L;CPIA 2  BARI;ALTAMURA;;;;;
